% Load (N)       No     Ni      So            Si    Average 
  100  6.924e-04  8.448e-04  6.924e-04  8.448e-04  7.686e-04 
  500  3.462e-03  4.224e-03  3.462e-03  4.224e-03  3.843e-03 
 1000  6.924e-03  8.448e-03  6.924e-03  8.448e-03  7.686e-03 
