     10       10     00     000 0.00000000000    0.00000    0.00000    0.00000    0.00000    0.00000    0.00000    0.00000    0.00000    0.00000    0.00000 
 % Element     i     j    E (GPa)    I (m^4)    A (m^2)    Fxi (N)    Fyi (N)    Mi (Nm)    Fxj (N)    Fyj (N)    Mj (Nm)     L (m)      h (m)   alpha (deg) 
     01       01     02 72000000000 0.00000000083    0.00010  0.00    0.00000    0.00000       0.00       0.00000    0.00000    0.02500    0.01000      0.00000 
     02       02     03 72000000000 0.00000000083    0.00010  0.00    0.00000    0.00000       0.00       0.00000    0.00000    0.03827    0.01000     67.50000 
     03       03     04 72000000000 0.00000000083    0.00010  0.00    0.00000    0.00000       0.00       0.00000    0.00000    0.03827    0.01000     22.50000 
     04       04     05 72000000000 0.00000000083    0.00010  0.00    0.00000    0.00000       0.00       0.00000    0.00000    0.03827    0.01000    -22.50000 
     05       05     06 72000000000 0.00000000083    0.00010  0.00    0.00000    0.00000       0.00       0.00000    0.00000    0.03827    0.01000    -67.50000 
     06       06     07 72000000000 0.00000000083    0.00010  0.00    0.00000    0.00000       0.00       0.00000    0.00000    0.03827    0.01000   -112.50000 
     07       07     08 72000000000 0.00000000083    0.00010  0.00    0.00000    0.00000       0.00       0.00000    0.00000    0.03827    0.01000   -157.50000 
     08       08     09 72000000000 0.00000000083    0.00010  0.00    0.00000    0.00000       0.00       0.00000    0.00000    0.03827    0.01000   -202.50000 
     09       09     02 72000000000 0.00000000083    0.00010  0.00    0.00000    0.00000       0.00       0.00000    0.00000    0.03827    0.01000    112.50000 
     10       06     10 72000000000 0.00000000083    0.00010  0.00    0.00000    0.00000     500.00       0.00000    0.00000    0.02500    0.01000      0.00000 
